…
## Sample Frequencies

``` r
recent_results %>%
  select(station, contains('_N_n') )
#> # A tibble: 23 x 4
#>    station din_N_n nox_N_n nh4_N_n
#>    <fct>     <int>   <int>   <int>
#>  1 CMS1         10      17      10
#>  2 OBY35         7      12       7
#>  3 PYC43         8      14       8
#>  4 P7CBI        26      40      27
#>  5 P5BSD        32      42      32
#>  6 PH1           9      16       9
#>  7 HR1          11      18      11
#>  8 BMR02         8      15       8
#>  9 HR3           6      13       6
#> 10 PH2           9      15       9
#> # ... with 13 more rows
```
…
